src/final_tb.vcd
$version Generated by VerilatedVcd $end
$timescale 1ps $end
 $scope module TOP $end
  $var wire 1 k clk $end
  $scope module adder_tb $end
   $var wire 1 k clk $end
   $scope module intf_inst $end
    $var wire 1 k clk $end
    $var wire 32 ^ exu2ialu_main_op1_i [31:0] $end
    $var wire 32 _ exu2ialu_main_op2_i [31:0] $end
    $var wire 1 ` exu2ialu_cmd_i $end
    $var wire 33 i main_sum_res_out [32:0] $end
    $var wire 1 c main_sum_pos_ovflw $end
    $var wire 1 d main_sum_neg_ovflw $end
    $var wire 4 e main_sum_flags_out [3:0] $end
   $upscope $end
   $scope module test_vectors[0] $end
    $var wire 32 # op1 [31:0] $end
    $var wire 32 $ op2 [31:0] $end
    $var wire 1 % cmd $end
    $var wire 32 & expected_result [31:0] $end
    $var wire 1 ' expected_pos_ovf $end
    $var wire 1 ( expected_neg_ovf $end
    $var wire 4 ) expected_main_sum_flags_out [3:0] $end
   $upscope $end
   $scope module test_vectors[1] $end
    $var wire 32 * op1 [31:0] $end
    $var wire 32 + op2 [31:0] $end
    $var wire 1 , cmd $end
    $var wire 32 - expected_result [31:0] $end
    $var wire 1 . expected_pos_ovf $end
    $var wire 1 / expected_neg_ovf $end
    $var wire 4 0 expected_main_sum_flags_out [3:0] $end
   $upscope $end
   $scope module test_vectors[2] $end
    $var wire 32 1 op1 [31:0] $end
    $var wire 32 2 op2 [31:0] $end
    $var wire 1 3 cmd $end
    $var wire 32 4 expected_result [31:0] $end
    $var wire 1 5 expected_pos_ovf $end
    $var wire 1 6 expected_neg_ovf $end
    $var wire 4 7 expected_main_sum_flags_out [3:0] $end
   $upscope $end
   $scope module test_vectors[3] $end
    $var wire 32 8 op1 [31:0] $end
    $var wire 32 9 op2 [31:0] $end
    $var wire 1 : cmd $end
    $var wire 32 ; expected_result [31:0] $end
    $var wire 1 < expected_pos_ovf $end
    $var wire 1 = expected_neg_ovf $end
    $var wire 4 > expected_main_sum_flags_out [3:0] $end
   $upscope $end
   $scope module test_vectors[4] $end
    $var wire 32 ? op1 [31:0] $end
    $var wire 32 @ op2 [31:0] $end
    $var wire 1 A cmd $end
    $var wire 32 B expected_result [31:0] $end
    $var wire 1 C expected_pos_ovf $end
    $var wire 1 D expected_neg_ovf $end
    $var wire 4 E expected_main_sum_flags_out [3:0] $end
   $upscope $end
   $scope module test_vectors[5] $end
    $var wire 32 F op1 [31:0] $end
    $var wire 32 G op2 [31:0] $end
    $var wire 1 H cmd $end
    $var wire 32 I expected_result [31:0] $end
    $var wire 1 J expected_pos_ovf $end
    $var wire 1 K expected_neg_ovf $end
    $var wire 4 L expected_main_sum_flags_out [3:0] $end
   $upscope $end
   $scope module test_vectors[6] $end
    $var wire 32 M op1 [31:0] $end
    $var wire 32 N op2 [31:0] $end
    $var wire 1 O cmd $end
    $var wire 32 P expected_result [31:0] $end
    $var wire 1 Q expected_pos_ovf $end
    $var wire 1 R expected_neg_ovf $end
    $var wire 4 S expected_main_sum_flags_out [3:0] $end
   $upscope $end
   $scope module test_vectors[7] $end
    $var wire 32 T op1 [31:0] $end
    $var wire 32 U op2 [31:0] $end
    $var wire 1 V cmd $end
    $var wire 32 W expected_result [31:0] $end
    $var wire 1 X expected_pos_ovf $end
    $var wire 1 Y expected_neg_ovf $end
    $var wire 4 Z expected_main_sum_flags_out [3:0] $end
   $upscope $end
   $var wire 32 [ passed_tests [31:0] $end
   $var wire 32 \ total_tests [31:0] $end
   $var wire 1 ] test_passed $end
   $scope module DUT $end
    $var wire 32 ^ exu2ialu_main_op1_i [31:0] $end
    $var wire 32 _ exu2ialu_main_op2_i [31:0] $end
    $var wire 1 ` exu2ialu_cmd_i $end
    $var wire 32 b main_sum_res_out [31:0] $end
    $var wire 1 c main_sum_pos_ovflw $end
    $var wire 1 d main_sum_neg_ovflw $end
    $var wire 4 e main_sum_flags_out [3:0] $end
    $var wire 33 f main_sum_res [32:0] $end
    $var wire 4 h main_sum_flags [3:0] $end
   $upscope $end
   $scope module unnamedblk1 $end
    $var wire 32 a i [31:0] $end
   $upscope $end
  $upscope $end
 $upscope $end
$enddefinitions $end


#0
b00000000000000000000000000000001 #
b00000000000000000000000000000010 $
1%
b00000000000000000000000000000011 &
0'
0(
b0000 )
b00000000000000000000000000000101 *
b00000000000000000000000000000011 +
0,
b00000000000000000000000000000010 -
0.
0/
b0000 0
b11111111111111111111111111111111 1
b00000000000000000000000000000001 2
13
b00000000000000000000000000000000 4
05
16
b1101 7
b01111111111111111111111111111111 8
b10000000000000000000000000000000 9
1:
b11111111111111111111111111111111 ;
1<
0=
b0011 >
b10000000000000000000000000000000 ?
b00000000000000000000000000000001 @
0A
b01111111111111111111111111111111 B
0C
1D
b0001 E
b00000000000000000000000000000000 F
b00000000000000000000000000000000 G
1H
b00000000000000000000000000000000 I
0J
0K
b0100 L
b10000111011001010100001100100001 M
b00010010001101000101011001111000 N
1O
b10011001100110011001100110011001 P
0Q
0R
b0010 S
b00000000000000000000000000000000 T
b00000000000000000000000000000001 U
0V
b11111111111111111111111111111111 W
0X
0Y
b1010 Z
b00000000000000000000000000000000 [
b00000000000000000000000000000000 \
0]
b00000000000000000000000000000001 ^
b00000000000000000000000000000010 _
1`
b00000000000000000000000000000000 a
b00000000000000000000000000000011 b
0c
0d
b0000 e
b000000000000000000000000000000011 f
b0000 h
b000000000000000000000000000000011 i
1k
#5
0k
#10
b00000000000000000000000000000010 [
b00000000000000000000000000000010 \
1]
b00000000000000000000000000000000 ^
b00000000000000000000000000000000 _
0`
b00000000000000000000000000000000 b
b0100 e
b000000000000000000000000000000000 f
b1000 h
b000000000000000000000000000000000 i
1k
#15
0k
#20
b00000000000000000000000000000101 ^
b00000000000000000000000000000011 _
b00000000000000000000000000000001 a
b00000000000000000000000000000010 b
b0000 e
b000000000000000000000000000000010 f
b0000 h
b000000000000000000000000000000010 i
1k
#25
0k
#30
b00000000000000000000000000000100 [
b00000000000000000000000000000100 \
b00000000000000000000000000000000 ^
b00000000000000000000000000000000 _
b00000000000000000000000000000000 b
b0100 e
b000000000000000000000000000000000 f
b1000 h
b000000000000000000000000000000000 i
1k
#35
0k
#40
b11111111111111111111111111111111 ^
b00000000000000000000000000000001 _
1`
b00000000000000000000000000000010 a
1d
b1101 e
b100000000000000000000000000000000 f
b1011 h
1k
#45
0k
#50
b00000000000000000000000000000110 [
b00000000000000000000000000000110 \
b00000000000000000000000000000000 ^
b00000000000000000000000000000000 _
0`
0d
b0100 e
b000000000000000000000000000000000 f
b1000 h
1k
#55
0k
#60
b01111111111111111111111111111111 ^
b10000000000000000000000000000000 _
1`
b00000000000000000000000000000011 a
b11111111111111111111111111111111 b
1c
b0011 e
b011111111111111111111111111111111 f
b0110 h
b011111111111111111111111111111111 i
1k
#65
0k
#70
b00000000000000000000000000001000 [
b00000000000000000000000000001000 \
b00000000000000000000000000000000 ^
b00000000000000000000000000000000 _
0`
b00000000000000000000000000000000 b
0c
b0100 e
b000000000000000000000000000000000 f
b1000 h
b000000000000000000000000000000000 i
1k
#75
0k
#80
b10000000000000000000000000000000 ^
b00000000000000000000000000000001 _
b00000000000000000000000000000100 a
b01111111111111111111111111111111 b
1d
b0001 e
b001111111111111111111111111111111 f
b0010 h
b001111111111111111111111111111111 i
1k
#85
0k
#90
b00000000000000000000000000001010 [
b00000000000000000000000000001010 \
b00000000000000000000000000000000 ^
b00000000000000000000000000000000 _
b00000000000000000000000000000000 b
0d
b0100 e
b000000000000000000000000000000000 f
b1000 h
b000000000000000000000000000000000 i
1k
#95
0k
#100
1`
b00000000000000000000000000000101 a
1k
#105
0k
#110
b00000000000000000000000000001100 [
b00000000000000000000000000001100 \
0`
1k
#115
0k
#120
b10000111011001010100001100100001 ^
b00010010001101000101011001111000 _
1`
b00000000000000000000000000000110 a
b10011001100110011001100110011001 b
b0010 e
b010011001100110011001100110011001 f
b0100 h
b010011001100110011001100110011001 i
1k
#125
0k
#130
b00000000000000000000000000001110 [
b00000000000000000000000000001110 \
b00000000000000000000000000000000 ^
b00000000000000000000000000000000 _
0`
b00000000000000000000000000000000 b
b0100 e
b000000000000000000000000000000000 f
b1000 h
b000000000000000000000000000000000 i
1k
#135
0k
#140
b00000000000000000000000000000001 _
b00000000000000000000000000000111 a
b11111111111111111111111111111111 b
b1010 e
b111111111111111111111111111111111 f
b0101 h
b011111111111111111111111111111111 i
1k
#145
0k
#150
b00000000000000000000000000010000 [
b00000000000000000000000000010000 \
b00000000000000000000000000000000 _
b00000000000000000000000000000000 b
b0100 e
b000000000000000000000000000000000 f
b1000 h
b000000000000000000000000000000000 i
1k
#155
0k
#160
b00000000000000000000000000001000 a
1k
